{
  "local": {
    "android": {
      "deviceName": "emulator-5554",
      "platformName": "Android",
      "automationName": "UiAutomator2",
      "appium:appPackage": "com.radiofrance.radio.radiofrance.android",
      "appium:appActivity": "com.radiofrance.radio.radiofrance.android.screen.splash.SplashActivity"
    },
    "android_emulator": {
      "deviceName": "emulator-5554",
      "platformName": "Android",
      "automationName": "UiAutomator2",
      "appium:appPackage": "com.radiofrance.radio.radiofrance.android",
      "appium:appActivity": "com.radiofrance.radio.radiofrance.android.screen.splash.SplashActivity"
    },
    "ios": {},
    "ios_emulator": {}
  }
}